%YAML 1.1
%TAG !u! tag:unity3d.com,2011:
--- !u!21 &2100000
Material:
  serializedVersion: 8
  m_ObjectHideFlags: 0
  m_CorrespondingSourceObject: {fileID: 0}
  m_PrefabInstance: {fileID: 0}
  m_PrefabAsset: {fileID: 0}
  m_Name: Grass_B_01_LOD2
  m_Shader: {fileID: 4800000, guid: 6213649efa95bbb4695d8d2b0ae828a4, type: 3}
  m_Parent: {fileID: 0}
  m_ModifiedSerializedProperties: 0
  m_ValidKeywords: []
  m_InvalidKeywords:
  - _NORMALMAP
  m_LightmapFlags: 4
  m_EnableInstancingVariants: 1
  m_DoubleSidedGI: 0
  m_CustomRenderQueue: -1
  stringTagMap: {}
  disabledShaderPasses: []
  m_LockedProperties: 
  m_SavedProperties:
    serializedVersion: 3
    m_TexEnvs:
    - _AOASmoothness:
        m_Texture: {fileID: 2800000, guid: d59fcb9468a1b024487d1e1f2533f99e, type: 3}
        m_Scale: {x: 1, y: 1}
        m_Offset: {x: 0, y: 0}
    - _Albedo:
        m_Texture: {fileID: 2800000, guid: 138968fb5d79a3c478d8b658fda265b0, type: 3}
        m_Scale: {x: 1, y: 1}
        m_Offset: {x: 0, y: 0}
    - _AlbedoAOpacity:
        m_Texture: {fileID: 2800000, guid: dadba69b669be1e4e8b294cd6ec43067, type: 3}
        m_Scale: {x: 1, y: 1}
        m_Offset: {x: 0, y: 0}
    - _BaseAOANoiseMask:
        m_Texture: {fileID: 0}
        m_Scale: {x: 1, y: 1}
        m_Offset: {x: 0, y: 0}
    - _BaseAlbedoASmoothness:
        m_Texture: {fileID: 0}
        m_Scale: {x: 1, y: 1}
        m_Offset: {x: 0, y: 0}
    - _BaseNormalMap:
        m_Texture: {fileID: 0}
        m_Scale: {x: 1, y: 1}
        m_Offset: {x: 0, y: 0}
    - _BumpMap:
        m_Texture: {fileID: 2800000, guid: aa2e0a19fc805114fb433137a767db8d, type: 3}
        m_Scale: {x: 1, y: 1}
        m_Offset: {x: 0, y: 0}
    - _DetailAlbedo:
        m_Texture: {fileID: 0}
        m_Scale: {x: 1, y: 1}
        m_Offset: {x: 0, y: 0}
    - _DetailAlbedoMap:
        m_Texture: {fileID: 0}
        m_Scale: {x: 1, y: 1}
        m_Offset: {x: 0, y: 0}
    - _DetailMask:
        m_Texture: {fileID: 0}
        m_Scale: {x: 1, y: 1}
        m_Offset: {x: 0, y: 0}
    - _DetailNormalMap:
        m_Texture: {fileID: 0}
        m_Scale: {x: 1, y: 1}
        m_Offset: {x: 0, y: 0}
    - _EmissionMap:
        m_Texture: {fileID: 0}
        m_Scale: {x: 1, y: 1}
        m_Offset: {x: 0, y: 0}
    - _MainTex:
        m_Texture: {fileID: 2800000, guid: d5d55528a9984104ab899bf7d62fdba5, type: 3}
        m_Scale: {x: 1, y: 1}
        m_Offset: {x: 0, y: 0}
    - _MetallicGlossMap:
        m_Texture: {fileID: 0}
        m_Scale: {x: 1, y: 1}
        m_Offset: {x: 0, y: 0}
    - _NM:
        m_Texture: {fileID: 2800000, guid: 0b37228c76fe71c4ebe5d1205f1996b4, type: 3}
        m_Scale: {x: 1, y: 1}
        m_Offset: {x: 0, y: 0}
    - _NMTexture:
        m_Texture: {fileID: 2800000, guid: 0b37228c76fe71c4ebe5d1205f1996b4, type: 3}
        m_Scale: {x: 1, y: 1}
        m_Offset: {x: 0, y: 0}
    - _NormalMap:
        m_Texture: {fileID: 2800000, guid: 901029abac146d944926c6e2772bbb45, type: 3}
        m_Scale: {x: 1, y: 1}
        m_Offset: {x: 0, y: 0}
    - _OcclusionMap:
        m_Texture: {fileID: 0}
        m_Scale: {x: 1, y: 1}
        m_Offset: {x: 0, y: 0}
    - _ParallaxMap:
        m_Texture: {fileID: 0}
        m_Scale: {x: 1, y: 1}
        m_Offset: {x: 0, y: 0}
    - _texcoord:
        m_Texture: {fileID: 0}
        m_Scale: {x: 1, y: 1}
        m_Offset: {x: 0, y: 0}
    m_Ints: []
    m_Floats:
    - _AOIntensity: 1
    - _BaseAOIntensity: 0.5
    - _BaseBottomOffset: 0.53
    - _BaseSmoothness: 0.5
    - _BottomOffset: 0.5
    - _BumpScale: 1
    - _Cutoff: 0.4
    - _DetailAlbedoIntensity: 1
    - _DetailNormalMapIntensity: 1
    - _DetailNormalMapScale: 1
    - _DetailUVScale: 10
    - _DstBlend: 0
    - _Float0: 1
    - _Float1: 10
    - _Gloss: 0.117
    - _GlossMapScale: 1
    - _Glossiness: 0
    - _GlossyReflections: 1
    - _Metallic: 0
    - _MipScale: 0.25
    - _Mode: 0
    - _Normal_Intensity: 1
    - _OcclusionStrength: 1
    - _Offset: 5
    - _Parallax: 0.02
    - _Smoothness: 0.338
    - _SmoothnessTextureChannel: 0
    - _Specular: 0.413
    - _SpecularHighlights: 1
    - _SrcBlend: 1
    - _Strenght: 3.03
    - _TintNoiseContrast: 10
    - _TintNoiseTile: 5.4
    - _TintNoiseTileX: 10
    - _TintNoiseTileY: 10
    - _TopContrast: 2
    - _TopIntensity: 1
    - _TopOffset: 1
    - _UVSec: 0
    - _WindAmplitude: 0.5
    - _WindGrassStiffness: 1
    - _WindIntensity: 0.5
    - _WindLocalIntensity: 1
    - _WindLocalScale: 20
    - _WindLocalSpeed: 2.64
    - _WindScale: 10
    - _WindSpeed: 4
    - _WindStiffness: 2.5
    - _ZWrite: 1
    - __dirty: 0
    m_Colors:
    - _BackColor: {r: 1, g: 1, b: 1, a: 0}
    - _BaseBottomColor: {r: 0.2269491, g: 0.6415094, b: 0.2696221, a: 1}
    - _BaseColor: {r: 1, g: 1, b: 1, a: 0}
    - _BottomColor: {r: 0.52205884, g: 0.52205884, b: 0.52205884, a: 1}
    - _Color: {r: 0.21266466, g: 0.764151, b: 0.23236066, a: 1}
    - _Color0: {r: 0.22794116, g: 0.22794116, b: 0.22794116, a: 0}
    - _EmissionColor: {r: 0, g: 0, b: 0, a: 1}
    - _SpecColor: {r: 1, g: 1, b: 1, a: 1}
    - _TintColor1: {r: 0, g: 0.7830189, b: 0.17400429, a: 0}
    - _TintColor2: {r: 0.009077947, g: 0.6415094, b: 0.12574013, a: 1}
    - _TopColor: {r: 0.6911765, g: 0.6911765, b: 0.6911765, a: 1}
    - _WindCycles: {r: 4, g: 1, b: 1, a: 0}
  m_BuildTextureStacks: []
