%YAML 1.1
%TAG !u! tag:unity3d.com,2011:
--- !u!1001 &2419907509512890423
PrefabInstance:
  m_ObjectHideFlags: 0
  serializedVersion: 2
  m_Modification:
    serializedVersion: 3
    m_TransformParent: {fileID: 0}
    m_Modifications:
    - target: {fileID: 100000, guid: d9e5b86cae878e14daf65d59f478840a, type: 3}
      propertyPath: m_Name
      value: banana_frenzy
      objectReference: {fileID: 0}
    - target: {fileID: 100000, guid: d9e5b86cae878e14daf65d59f478840a, type: 3}
      propertyPath: m_Layer
      value: 6
      objectReference: {fileID: 0}
    - target: {fileID: 100000, guid: d9e5b86cae878e14daf65d59f478840a, type: 3}
      propertyPath: m_TagString
      value: FrenzyBanana
      objectReference: {fileID: 0}
    - target: {fileID: 400000, guid: d9e5b86cae878e14daf65d59f478840a, type: 3}
      propertyPath: m_LocalScale.x
      value: 1.5
      objectReference: {fileID: 0}
    - target: {fileID: 400000, guid: d9e5b86cae878e14daf65d59f478840a, type: 3}
      propertyPath: m_LocalScale.y
      value: 1.5
      objectReference: {fileID: 0}
    - target: {fileID: 400000, guid: d9e5b86cae878e14daf65d59f478840a, type: 3}
      propertyPath: m_LocalScale.z
      value: 1.5
      objectReference: {fileID: 0}
    - target: {fileID: 400000, guid: d9e5b86cae878e14daf65d59f478840a, type: 3}
      propertyPath: m_LocalPosition.x
      value: 28.5195
      objectReference: {fileID: 0}
    - target: {fileID: 400000, guid: d9e5b86cae878e14daf65d59f478840a, type: 3}
      propertyPath: m_LocalPosition.y
      value: 2.39
      objectReference: {fileID: 0}
    - target: {fileID: 400000, guid: d9e5b86cae878e14daf65d59f478840a, type: 3}
      propertyPath: m_LocalPosition.z
      value: 31.9099
      objectReference: {fileID: 0}
    - target: {fileID: 400000, guid: d9e5b86cae878e14daf65d59f478840a, type: 3}
      propertyPath: m_LocalRotation.w
      value: 1
      objectReference: {fileID: 0}
    - target: {fileID: 400000, guid: d9e5b86cae878e14daf65d59f478840a, type: 3}
      propertyPath: m_LocalRotation.x
      value: 0
      objectReference: {fileID: 0}
    - target: {fileID: 400000, guid: d9e5b86cae878e14daf65d59f478840a, type: 3}
      propertyPath: m_LocalRotation.y
      value: -0
      objectReference: {fileID: 0}
    - target: {fileID: 400000, guid: d9e5b86cae878e14daf65d59f478840a, type: 3}
      propertyPath: m_LocalRotation.z
      value: -0
      objectReference: {fileID: 0}
    - target: {fileID: 400000, guid: d9e5b86cae878e14daf65d59f478840a, type: 3}
      propertyPath: m_LocalEulerAnglesHint.x
      value: 0
      objectReference: {fileID: 0}
    - target: {fileID: 400000, guid: d9e5b86cae878e14daf65d59f478840a, type: 3}
      propertyPath: m_LocalEulerAnglesHint.y
      value: 0
      objectReference: {fileID: 0}
    - target: {fileID: 400000, guid: d9e5b86cae878e14daf65d59f478840a, type: 3}
      propertyPath: m_LocalEulerAnglesHint.z
      value: 0
      objectReference: {fileID: 0}
    - target: {fileID: 2300002, guid: d9e5b86cae878e14daf65d59f478840a, type: 3}
      propertyPath: m_Materials.Array.data[0]
      value: 
      objectReference: {fileID: 2100000, guid: 8149fdc51ee2efb479affc29531952ee, type: 2}
    m_RemovedComponents: []
    m_RemovedGameObjects: []
    m_AddedGameObjects: []
    m_AddedComponents:
    - targetCorrespondingSourceObject: {fileID: 100000, guid: d9e5b86cae878e14daf65d59f478840a,
        type: 3}
      insertIndex: -1
      addedObject: {fileID: 5311883756450373818}
    - targetCorrespondingSourceObject: {fileID: 100000, guid: d9e5b86cae878e14daf65d59f478840a,
        type: 3}
      insertIndex: -1
      addedObject: {fileID: 2420134491265096503}
  m_SourcePrefab: {fileID: 100100000, guid: d9e5b86cae878e14daf65d59f478840a, type: 3}
--- !u!1 &2419907509512924823 stripped
GameObject:
  m_CorrespondingSourceObject: {fileID: 100000, guid: d9e5b86cae878e14daf65d59f478840a,
    type: 3}
  m_PrefabInstance: {fileID: 2419907509512890423}
  m_PrefabAsset: {fileID: 0}
--- !u!54 &5311883756450373818
Rigidbody:
  m_ObjectHideFlags: 0
  m_CorrespondingSourceObject: {fileID: 0}
  m_PrefabInstance: {fileID: 0}
  m_PrefabAsset: {fileID: 0}
  m_GameObject: {fileID: 2419907509512924823}
  serializedVersion: 4
  m_Mass: 1
  m_Drag: 0
  m_AngularDrag: 0.05
  m_CenterOfMass: {x: 0, y: 0, z: 0}
  m_InertiaTensor: {x: 1, y: 1, z: 1}
  m_InertiaRotation: {x: 0, y: 0, z: 0, w: 1}
  m_IncludeLayers:
    serializedVersion: 2
    m_Bits: 0
  m_ExcludeLayers:
    serializedVersion: 2
    m_Bits: 0
  m_ImplicitCom: 1
  m_ImplicitTensor: 1
  m_UseGravity: 1
  m_IsKinematic: 0
  m_Interpolate: 1
  m_Constraints: 0
  m_CollisionDetection: 1
--- !u!136 &2420134491265096503
CapsuleCollider:
  m_ObjectHideFlags: 0
  m_CorrespondingSourceObject: {fileID: 0}
  m_PrefabInstance: {fileID: 0}
  m_PrefabAsset: {fileID: 0}
  m_GameObject: {fileID: 2419907509512924823}
  m_Material: {fileID: 0}
  m_IncludeLayers:
    serializedVersion: 2
    m_Bits: 0
  m_ExcludeLayers:
    serializedVersion: 2
    m_Bits: 0
  m_LayerOverridePriority: 0
  m_IsTrigger: 0
  m_ProvidesContacts: 0
  m_Enabled: 1
  serializedVersion: 2
  m_Radius: 0.03
  m_Height: 0.25
  m_Direction: 2
  m_Center: {x: 0, y: 0.024258167, z: -0.00563702}
