%YAML 1.1
%TAG !u! tag:unity3d.com,2011:
--- !u!181963792 &2655988077585873504
Preset:
  m_ObjectHideFlags: 0
  m_CorrespondingSourceObject: {fileID: 0}
  m_PrefabInstance: {fileID: 0}
  m_PrefabAsset: {fileID: 0}
  m_Name: SliceObject
  m_TargetType:
    m_NativeTypeID: 114
    m_ManagedTypePPtr: {fileID: 11500000, guid: f23acf810d96fcb44886f734e635515c,
      type: 3}
    m_ManagedTypeFallback: 
  m_Properties:
  - target: {fileID: 0}
    propertyPath: m_Enabled
    value: 1
    objectReference: {fileID: 0}
  - target: {fileID: 0}
    propertyPath: m_EditorHideFlags
    value: 0
    objectReference: {fileID: 0}
  - target: {fileID: 0}
    propertyPath: m_EditorClassIdentifier
    value: 
    objectReference: {fileID: 0}
  - target: {fileID: 0}
    propertyPath: _startSlicePoint
    value: 
    objectReference: {fileID: 0}
  - target: {fileID: 0}
    propertyPath: _endSlicePoint
    value: 
    objectReference: {fileID: 0}
  - target: {fileID: 0}
    propertyPath: _velocityEstimator
    value: 
    objectReference: {fileID: 0}
  - target: {fileID: 0}
    propertyPath: _sliceableLayer.m_Bits
    value: 64
    objectReference: {fileID: 0}
  - target: {fileID: 0}
    propertyPath: _slowMotion
    value: 
    objectReference: {fileID: 0}
  - target: {fileID: 0}
    propertyPath: _fruitThrower
    value: 
    objectReference: {fileID: 0}
  - target: {fileID: 0}
    propertyPath: _crossSectionMaterial
    value: 
    objectReference: {fileID: 2100000, guid: a13af305cd3be944ab2e4da7165c9134, type: 2}
  - target: {fileID: 0}
    propertyPath: _cutForce
    value: 2000
    objectReference: {fileID: 0}
  - target: {fileID: 0}
    propertyPath: _squishAudioClip
    value: 
    objectReference: {fileID: 8300000, guid: ffb159a21c8a04135a5616979c828fab, type: 3}
  - target: {fileID: 0}
    propertyPath: _squishPitch
    value: 0.3
    objectReference: {fileID: 0}
  - target: {fileID: 0}
    propertyPath: _sliceAudioClip
    value: 
    objectReference: {fileID: 8300000, guid: fe0b1f9aeb45b41b089175aeeabd5d95, type: 3}
  - target: {fileID: 0}
    propertyPath: _slicePitch
    value: 0.8
    objectReference: {fileID: 0}
  - target: {fileID: 0}
    propertyPath: _explosionAudioClip
    value: 
    objectReference: {fileID: 8300000, guid: 7bef0064f8567430cac22499c6b93d4f, type: 3}
  - target: {fileID: 0}
    propertyPath: _explosionPitch
    value: 0.8
    objectReference: {fileID: 0}
  - target: {fileID: 0}
    propertyPath: _pearParticles
    value: 
    objectReference: {fileID: 3548588485384254794, guid: ff311c6ad6318334085b67b0157b8083,
      type: 3}
  - target: {fileID: 0}
    propertyPath: _appleParticles
    value: 
    objectReference: {fileID: 6599825253905222782, guid: 6fa5dd0956918294b931618d60c2d3b0,
      type: 3}
  - target: {fileID: 0}
    propertyPath: _orangeParticles
    value: 
    objectReference: {fileID: 2571010243423188021, guid: 0c71629c7e4f78845bc2fdaad9bee3f8,
      type: 3}
  - target: {fileID: 0}
    propertyPath: _explosionParticles
    value: 
    objectReference: {fileID: 8925526153846283985, guid: 201c1f240a432a948b93cdc87d7da438,
      type: 3}
  - target: {fileID: 0}
    propertyPath: _smokeParticles
    value: 
    objectReference: {fileID: 7099533329689569535, guid: 8c20ea8df48199a4f94046e009da976f,
      type: 3}
  - target: {fileID: 0}
    propertyPath: _sliceTracker
    value: 
    objectReference: {fileID: 0}
  m_ExcludedProperties: []
