%YAML 1.1
%TAG !u! tag:unity3d.com,2011:
--- !u!1045 &1
EditorBuildSettings:
  m_ObjectHideFlags: 0
  serializedVersion: 2
  m_Scenes:
  - enabled: 0
    path: Assets/Scenes/SampleScene.unity
    guid: 99c9720ab356a0642a771bea13969a05
  - enabled: 0
    path: Assets/Scenes/UnusedScenes/SimpleTestScene.unity
    guid: f501a446d4ccd484da388634535a986a
  - enabled: 0
    path: Assets/Scenes/TerrainDemoScene.unity
    guid: 9a18cc5d35536fd428eb6e90b3402589
  - enabled: 0
    path: Assets/Scenes/NatureTest.unity
    guid: 4621e950a2d63db4696543a6aa1928b6
  - enabled: 0
    path: Assets/Scenes/NatureTestSmall.unity
    guid: 8c6df197ecb99c54d9e8e67bd612c505
  - enabled: 0
    path: Assets/Scenes/Main_URP.unity
    guid: a09f4ac5ab7c7854cba41a8398375ccb
  - enabled: 0
    path: Assets/Scenes/Main_GumTrees.unity
    guid: c1d0f164f1c7d0b4b9e0aa57d727cd8c
  - enabled: 0
    path: Assets/Scenes/Main_LemonTrees.unity
    guid: ede6df0f513cd94469f51748f12a9a28
  - enabled: 0
    path: Assets/Scenes/Main_WinterTrees.unity
    guid: b5ba0de17d8a5e049ab8dfad626328e5
  - enabled: 0
    path: Assets/Scenes/UnusedScenes/Main_WinterTrees_Large.unity
    guid: 2c66f0afc453b4c468c7c9b839d77389
  - enabled: 0
    path: Assets/Scenes/UnusedScenes/Main.unity
    guid: 851ca1b1e2978294fb942c47a9e5f1e9
  - enabled: 0
    path: Assets/Scenes/UnusedScenes/TreePrefabs.unity
    guid: 551a10da07ad1ca408fff00619a2dc90
  - enabled: 0
    path: Assets/Packages/PhotoscannedMountains/Photoscanned MoutainsRocks PBR/DemoScene/DemoScene02.unity
    guid: 958481c13c9cb8e459eeb50771f4e895
  - enabled: 0
    path: Assets/Packages/Old Sea Port/scenes/Docks.unity
    guid: f4fc660ad7cf6eb4eb8cd6d109f7608e
  - enabled: 0
    path: Assets/Packages/Flooded_Grounds/Scenes/FloodedGrounds.unity
    guid: c0d944ca9defd20449bc336e50d75a08
  - enabled: 0
    path: Assets/Packages/RPG_FPS_game_assets_industrial/Industrial.unity
    guid: 5a463281e6e238742a45430f11e82829
  - enabled: 0
    path: Assets/Packages/DemoCity/Scenes/DemoCity.unity
    guid: 3dd6985d248a2724291b46a30456112a
  - enabled: 0
    path: Assets/Scenes/UnusedScenes/SunTemple.unity
    guid: ade67714a2a293745aec37df2a9e4313
  - enabled: 0
    path: Assets/Scenes/UnusedScenes/SunTempleHouse.unity
    guid: df08f74fc4d024b41b084684bd8bd488
  - enabled: 0
    path: Assets/Scenes/UnusedScenes/SunTempleHouse_Lighting.unity
    guid: 339b90551d7b28a4090b34765ff9e04f
  - enabled: 0
    path: Assets/Scenes/UnusedScenes/Docks.unity
    guid: 8140b9b39169baf4cb6030c2c84f87b6
  - enabled: 0
    path: Assets/Scenes/UnusedScenes/WesternTown.unity
    guid: b4f37fc31fa67a34da6b72fde747162b
  - enabled: 0
    path: Assets/Scenes/UnusedScenes/WesternTown_lowerFidelity.unity
    guid: a55743ec925229a4181add32fe691212
  - enabled: 0
    path: Assets/Scenes/UnusedScenes/CyberpunkApartment.unity
    guid: b2bc15816b4a707449a5c64a59a565cb
  - enabled: 0
    path: Assets/Scenes/JapaneseGarden.unity
    guid: 61b530aed0173b649bd57a3e2782f511
  - enabled: 0
    path: Assets/Scenes/JapaneseGarden2.unity
    guid: 87a27c0f45a551548b77078b8c84d8d0
  - enabled: 0
    path: Assets/Scenes/LEGACY_JapaneseGarden_2.unity
    guid: dbde0df47cffea747b878dc324d58fa1
  - enabled: 0
    path: Assets/Scenes/LEGACY_JapaneseGarden_1.unity
    guid: 0d99e61025988814e93dfec998d5933a
  - enabled: 1
    path: Assets/Scenes/StartScene.unity
    guid: a59352dd32c5f9542bdc9661dd79c0d7
  - enabled: 1
    path: Assets/Scenes/Tutorial.unity
    guid: 58a9e851cad43bf4aacb2a2f19adfa86
  - enabled: 1
    path: Assets/Scenes/JapaneseGarden_2.unity
    guid: f963d74f0979cad4d81677431cf40534
  - enabled: 1
    path: Assets/Scenes/JapaneseGarden_1.unity
    guid: 4ceeb05aae6d0d54fb8fcf660201e45f
  - enabled: 1
    path: Assets/Scenes/JapaneseGarden_0.unity
    guid: cf6c51465f6044446a20dc7949d594a5
  - enabled: 0
    path: Assets/Scenes/LEGACY_MainMenu.unity
    guid: 17488c463e6457a49b5be5c22ca99b03
  - enabled: 1
    path: Assets/Scenes/EndScene.unity
    guid: f3b3a58bdc08a754f8a2d7b184f82f26
  m_configObjects:
    Unity.XR.Oculus.Settings: {fileID: 11400000, guid: 9b88c618f348b2243b565c5cadb9ee4c,
      type: 2}
    com.unity.xr.management.loader_settings: {fileID: 11400000, guid: c645e554374695e4d993e40d81c7d331,
      type: 2}
