%YAML 1.1
%TAG !u! tag:unity3d.com,2011:
--- !u!181963792 &2655988077585873504
Preset:
  m_ObjectHideFlags: 0
  m_CorrespondingSourceObject: {fileID: 0}
  m_PrefabInstance: {fileID: 0}
  m_PrefabAsset: {fileID: 0}
  m_Name: score
  m_TargetType:
    m_NativeTypeID: 224
    m_ManagedTypePPtr: {fileID: 0}
    m_ManagedTypeFallback: 
  m_Properties:
  - target: {fileID: 0}
    propertyPath: m_LocalRotation.x
    value: 0
    objectReference: {fileID: 0}
  - target: {fileID: 0}
    propertyPath: m_LocalRotation.y
    value: 0
    objectReference: {fileID: 0}
  - target: {fileID: 0}
    propertyPath: m_LocalRotation.z
    value: 0
    objectReference: {fileID: 0}
  - target: {fileID: 0}
    propertyPath: m_LocalRotation.w
    value: 1
    objectReference: {fileID: 0}
  - target: {fileID: 0}
    propertyPath: m_LocalPosition.x
    value: 0
    objectReference: {fileID: 0}
  - target: {fileID: 0}
    propertyPath: m_LocalPosition.y
    value: 0
    objectReference: {fileID: 0}
  - target: {fileID: 0}
    propertyPath: m_LocalPosition.z
    value: 0.097
    objectReference: {fileID: 0}
  - target: {fileID: 0}
    propertyPath: m_LocalScale.x
    value: 1
    objectReference: {fileID: 0}
  - target: {fileID: 0}
    propertyPath: m_LocalScale.y
    value: 1
    objectReference: {fileID: 0}
  - target: {fileID: 0}
    propertyPath: m_LocalScale.z
    value: 1
    objectReference: {fileID: 0}
  - target: {fileID: 0}
    propertyPath: m_ConstrainProportionsScale
    value: 0
    objectReference: {fileID: 0}
  - target: {fileID: 0}
    propertyPath: m_LocalEulerAnglesHint.x
    value: 0
    objectReference: {fileID: 0}
  - target: {fileID: 0}
    propertyPath: m_LocalEulerAnglesHint.y
    value: 0
    objectReference: {fileID: 0}
  - target: {fileID: 0}
    propertyPath: m_LocalEulerAnglesHint.z
    value: 0
    objectReference: {fileID: 0}
  - target: {fileID: 0}
    propertyPath: m_AnchorMin.x
    value: 0.5
    objectReference: {fileID: 0}
  - target: {fileID: 0}
    propertyPath: m_AnchorMin.y
    value: 0.5
    objectReference: {fileID: 0}
  - target: {fileID: 0}
    propertyPath: m_AnchorMax.x
    value: 0.5
    objectReference: {fileID: 0}
  - target: {fileID: 0}
    propertyPath: m_AnchorMax.y
    value: 0.5
    objectReference: {fileID: 0}
  - target: {fileID: 0}
    propertyPath: m_AnchoredPosition.x
    value: 0
    objectReference: {fileID: 0}
  - target: {fileID: 0}
    propertyPath: m_AnchoredPosition.y
    value: -0.418
    objectReference: {fileID: 0}
  - target: {fileID: 0}
    propertyPath: m_SizeDelta.x
    value: 6
    objectReference: {fileID: 0}
  - target: {fileID: 0}
    propertyPath: m_SizeDelta.y
    value: 2
    objectReference: {fileID: 0}
  - target: {fileID: 0}
    propertyPath: m_Pivot.x
    value: 0.5
    objectReference: {fileID: 0}
  - target: {fileID: 0}
    propertyPath: m_Pivot.y
    value: 0.5
    objectReference: {fileID: 0}
  m_ExcludedProperties: []
